{
  "kind": "collectionType",
  "collectionName": "user_stories",
  "info": {
    "name": "User Story"
  },
  "options": {
    "increments": true,
    "timestamps": true
  },
  "attributes": {
    "Category": {
      "type": "enumeration",
      "enum": [
        "Virtualization",
        "Development",
        "Services",
        "Action",
        "File",
        "Communication",
        "Design",
        "Navigation",
        "Hardware",
        "Places",
        "Device",
        "Notification",
        "Content",
        "Image",
        "Alert",
        "Maps",
        "Av",
        "Editor",
        "Social",
        "Toggle",
        "Miscellaneous"
      ],
      "required": true
    },
    "Description": {
      "type": "richtext",
      "required": true
    },
    "Title": {
      "type": "string",
      "unique": true
    },
    "Attachment": {
      "collection": "file",
      "via": "related",
      "allowedTypes": [
        "images",
        "files",
        "videos"
      ],
      "plugin": "upload",
      "required": false
    },
    "author": {
      "plugin": "users-permissions",
      "model": "user",
      "via": "user_stories"
    },
    "user_story_status": {
      "model": "user-story-status",
      "via": "user_stories"
    },
    "user_story_comments": {
      "collection": "user-story-comment",
      "via": "user_story"
    },
    "product": {
      "model": "product",
      "via": "user_stories"
    },
    "followers": {
      "unique": true,
      "plugin": "users-permissions",
      "collection": "user"
    }
  }
}
